…
`tibble()` is a nice way to create data frames. A tibble is a data frame with class `tbl_df`, a subclass of `data.frame`, designed to have different default behavior. Tibble is the central data structure for the set of packages known as the **{[tidyverse](https://www.tidyverse.org/)}**.

To complement `tibble()`, the **{tibble}** package provides `as_tibble()` to coerce an existing object, such as a data frame or matrix, into tibbles . A tibble encapsulates best practices for data frames:

- It never changes an input’s type (i.e., no more `stringsAsFactors = FALSE`!). This makes it easier to use with list columns. List-columns are often created by `tidyr::nest()`, but they can be useful to create by hand.
- It never adjusts the names of variables.
- It evaluates its arguments lazily and sequentially.
- It never uses `row.names()`. The whole point of tidy data is to store variables in a consistent way. So it never stores a variable as a special attribute.
- It only recycles vectors of length 1. This is because recycling vectors of greater lengths are a frequent source of bugs.



```r
(as_tibble(UCB))
## # A tibble: 24 × 4
##    Admit    Gender Dept      n
##    <chr>    <chr>  <chr> <dbl>
##  1 Admitted Male   A       512
##  2 Rejected Male   A       313
##  3 Admitted Female A        89
##  4 Rejected Female A        19
##  5 Admitted Male   B       353
##  6 Rejected Male   B       207
##  7 Admitted Female B        17
##  8 Rejected Female B         8
##  9 Admitted Male   C       120
## 10 Rejected Male   C       205
## # … with 14 more rows
```
…
