3 Working with categorical data | Discrete Data Analysis with R
…
##      Admit  Admitted        Rejected       
##      Gender     Male Female     Male Female
## Dept                                       
## A                512     89      313     19
## B                353     17      207      8
## C                120    202      205    391
## D                138    131      279    244
## E                 53     94      138    299
## F                 22     24      351    317

as_tibble():

as_tibble(UCB)

## # A tibble: 24 × 4
##    Admit    Gender Dept      n
##    <chr>    <chr>  <chr> <dbl>
##  1 Admitted Male   A       512
##  2 Rejected Male   A       313
##  3 Admitted Female A        89
##  4 Rejected Female A        19
##  5 Admitted Male   B       353
##  6 Rejected Male   B       207
##  7 Admitted Female B        17
##  8 Rejected Female B         8
##  9 Admitted Male   C       120
## 10 Rejected Male   C       205
## # … with 14 more rows
…
